C:\Users\mputtach\eclipse-workspace\SeleniumFramework\src\main\java\properties\TestProperties.java
C:\Users\mputtach\eclipse-workspace\SeleniumFramework\src\main\java\pageobjects\BasePageObject.java
C:\Users\mputtach\eclipse-workspace\SeleniumFramework\src\main\java\driver\SimpleDriver.java
C:\Users\mputtach\eclipse-workspace\SeleniumFramework\src\main\java\driver\Grid.java
C:\Users\mputtach\eclipse-workspace\SeleniumFramework\src\main\java\restframework\Winners.java
C:\Users\mputtach\eclipse-workspace\SeleniumFramework\src\main\java\driver\Firefox.java
C:\Users\mputtach\eclipse-workspace\SeleniumFramework\src\main\java\base\TestBase.java
C:\Users\mputtach\eclipse-workspace\SeleniumFramework\src\main\java\base\RestBase.java
C:\Users\mputtach\eclipse-workspace\SeleniumFramework\src\main\java\driver\Chrome.java
C:\Users\mputtach\eclipse-workspace\SeleniumFramework\src\main\java\pageobjects\LoginPageObject.java
C:\Users\mputtach\eclipse-workspace\SeleniumFramework\src\main\java\driver\WebdriverFactory.java
C:\Users\mputtach\eclipse-workspace\SeleniumFramework\src\main\java\pageobjects\HomePage.java
C:\Users\mputtach\eclipse-workspace\SeleniumFramework\src\main\java\restframework\Lotto.java
C:\Users\mputtach\eclipse-workspace\SeleniumFramework\src\main\java\config\FrameworkContext.java
